Band Index,lmin,lpeak,lmax,nside
1         ,0   ,0    ,50  ,32
2         ,0   ,50   ,100 ,64
3         ,50  ,100  ,200 ,128
4         ,100  ,200  ,400 ,256
5         ,200  ,400  ,800 ,512
6         ,400  ,800  ,1000 ,512
