Band Index,lmin,lpeak,lmax,nside
1         ,0   ,0    ,316  ,256
2         ,316  ,300  ,447 ,256
3         ,447  ,600  ,548 ,512
4         ,548  ,633  ,633 ,512
5         ,633  ,600  ,708 ,512
6         ,708  ,600  ,775 ,512
7         ,775  ,600  ,837 ,512
8         ,837  ,600  ,895 ,512
9         ,895  ,600  ,949 ,512
10         ,949  ,600  ,1000 ,512
